module prjoh/go-webserver

go 1.16

require (
	github.com/gorilla/mux v1.8.0
	github.com/kr/pretty v0.1.0 // indirect
	gopkg.in/check.v1 v1.0.0-20180628173108-788fd7840127 // indirect
	gopkg.in/yaml.v2 v2.4.0
)
